<?xml version="1.0" encoding="iso-8859-1"?>
<!-- Generator: Adobe Illustrator 19.0.0, SVG Export Plug-In . SVG Version: 6.00 Build 0)  -->
<svg version="1.1" id="Capa_1" xmlns="http://www.w3.org/2000/svg" xmlns:xlink="http://www.w3.org/1999/xlink" x="0px" y="0px"
	 viewBox="0 0 512 512" style="enable-background:new 0 0 512 512;" xml:space="preserve">
<g>
	<g>
		<path d="M510.388,78.012l-12.313-29.54c-3.269-7.837-10.866-12.901-19.356-12.901c-2.773,0-5.484,0.544-8.057,1.617l-9.328,3.888
			c-7.395,3.081-12.144,9.919-12.82,17.507l-225.971,94.186l-15.567-37.349c6.932-5.721,9.65-15.519,6.018-24.237l-3.889-9.328
			c-4.491-10.771-16.785-15.713-27.418-11.284L36.249,131.19c-5.17,2.154-9.191,6.192-11.323,11.371
			c-3.91,9.496-0.027,15.898,3.924,25.375c3.569,8.561,12.264,13.725,21.452,12.795l51.151,122.722
			c-6.933,5.723-9.65,15.523-6.017,24.24l3.887,9.322c4.49,10.779,16.787,15.717,27.417,11.287l145.441-60.621
			c5.169-2.153,9.189-6.191,11.321-11.37c3.91-9.497,0.028-15.895-3.923-25.372c-3.569-8.568-12.269-13.728-21.453-12.798
			l-15.564-37.343l94.183-39.255c3.822-1.593,5.629-5.983,4.036-9.806c-1.592-3.821-5.982-5.625-9.806-4.036l-94.183,39.255
			c-3.146-7.549-5.334-12.8-8.479-20.347l223.76-93.265l8.479,20.348l-97.278,40.545c-3.822,1.592-5.63,5.982-4.037,9.805
			c1.593,3.823,5.985,5.627,9.805,4.037l99.765-41.579c5.794,4.527,13.784,5.812,20.972,2.816l9.326-3.888
			C509.77,100.984,514.833,88.685,510.388,78.012z M42.687,162.164l-3.888-9.327c-1.268-3.037,0.16-6.535,3.215-7.806
			c155.662-64.882,145.983-61.084,147.731-61.084c2.42,0,4.586,1.444,5.517,3.677l3.888,9.326c1.267,3.039-0.176,6.541-3.214,7.807
			c-0.664,0.276-143.439,59.786-145.442,60.621C47.419,166.657,43.951,165.192,42.687,162.164z M265.735,256.706l3.889,9.326
			c1.269,3.045-0.168,6.537-3.215,7.806c-155.702,64.898-145.985,61.084-147.734,61.084c-2.418,0-4.583-1.443-5.514-3.679
			l-3.888-9.324c-1.267-3.038,0.176-6.542,3.213-7.807c0.326-0.136,0.979-0.407,1.305-0.543l142.835-59.536
			C260.792,251.842,264.447,253.614,265.735,256.706z M243.936,243.078l-128.995,53.766L64.487,175.792l128.995-53.765
			L243.936,243.078z M493.333,91.587l-9.327,3.888c-3.079,1.285-6.551-0.204-7.808-3.213c-12.816-30.76-12.412-29.656-12.651-30.656
			c-0.551-2.693,0.837-5.558,3.553-6.69c10.27-4.28,10.091-4.351,11.618-4.351c2.419,0,4.585,1.444,5.516,3.677l12.311,29.537
			C497.812,86.82,496.371,90.323,493.333,91.587z"/>
	</g>
</g>
<g>
	<g>
		<path d="M320.623,404.742h-7.137c0.855-3.249,0.682-4.371,0.682-14.555c0-11.081-9.015-20.097-20.096-20.097H55.844
			c-11.082,0-20.098,9.015-20.098,20.097c0,10.368-0.169,11.324,0.682,14.555h-7.136C13.14,404.742,0,417.883,0,434.034v34.899
			c0,4.142,3.356,7.498,7.498,7.498h149.965c4.142,0,7.498-3.356,7.498-7.498s-3.356-7.498-7.498-7.498H14.995v-27.401
			c0-7.883,6.413-14.296,14.296-14.296c7.379,0,283.193,0,291.332,0c7.883,0,14.296,6.413,14.296,14.296v27.401H192.451
			c-4.142,0-7.498,3.356-7.498,7.498s3.356,7.498,7.498,7.498h149.966c4.142,0,7.498-3.356,7.498-7.498v-34.899
			C349.914,417.883,336.774,404.742,320.623,404.742z M299.173,399.641c0,2.813-2.288,5.101-5.101,5.101H55.844
			c-2.814,0-5.103-2.288-5.103-5.101v-9.454c0-2.814,2.289-5.102,5.103-5.102h238.228c2.813,0,5.101,2.288,5.101,5.102V399.641z"/>
	</g>
</g>
<g>
</g>
<g>
</g>
<g>
</g>
<g>
</g>
<g>
</g>
<g>
</g>
<g>
</g>
<g>
</g>
<g>
</g>
<g>
</g>
<g>
</g>
<g>
</g>
<g>
</g>
<g>
</g>
<g>
</g>
</svg>
