<?xml version="1.0" encoding="utf-8"?>
<!-- Generator: Adobe Illustrator 21.1.0, SVG Export Plug-In . SVG Version: 6.00 Build 0)  -->
<svg version="1.1" id="Capa_1" xmlns="http://www.w3.org/2000/svg" xmlns:xlink="http://www.w3.org/1999/xlink" x="0px" y="0px"
	 viewBox="0 0 512 512" style="enable-background:new 0 0 512 512;" xml:space="preserve">
<style type="text/css">
	.st0{fill:#A0A0A0;}
</style>
<g>
	<g>
		<path class="st0" d="M485.2,176.4c-11.6,0-21.2,7.7-26.2,21.2l-33.7,66c-7.4-4.9-16.4-5.5-25.7-0.8
			c-60.3,30.4-49.5,22.5-75.9,52.6c-6.3,7.2-14.8,20.7-17.9,31l-7.9,25.6c-4.6-0.5-4.8-0.6-5.8-0.6c-7,0-12.9,5.2-13.7,12.2
			c0.3-2.9-10.3,90.5-10.4,90.8c-0.3,5.5,1.2,11.3,5.2,15.4c6.9,7.1,14.2,5.8,38.4,5.8c4.1,0,7.5-3.4,7.5-7.5s-3.4-7.5-7.5-7.5
			c-24.2,0-26.1,0.4-27.6-1.2c-1.8-1.8-1.3-1.5,5.2-58c10.1,1.1,84.9,9.7,95,10.8l-4.8,42.3c-0.6,4.8-4.1,5.9-6.3,6.1h-26.4
			c-4.1,0-7.5,3.4-7.5,7.5s3.4,7.5,7.5,7.5h26.6c0.1,0,0.2,0,0.2,0c6.4-0.2,19-4.5,20.7-19.3c8.2-71.8,5.3-46.1,8.9-78.4
			c0.6-5.4-2.1-10.5-6.4-13.2c8.4-9.4,4.8-6.7,49.9-29.5c0.1-0.1,0.2-0.1,0.3-0.2c6.2-3.5,21.1-13.7,26.2-33.4
			c0.2-0.5,37.5-107.6,37.6-108.1C515.8,193.9,504.7,176.4,485.2,176.4z M385.9,417.3c-10.1-1.1-84.9-9.7-95-10.8l2.3-19.9
			c9.8,1.1,85,9.7,95,10.8c0,0,0,0,0,0L385.9,417.3z M496.4,209.4c-0.2,0.6-37.5,107.6-37.6,108.2c-3.6,14.1-14.3,21.5-19,24.2
			l-35.2,17.8c-8.8,4.4-13.8,9.3-15.6,11.3c0,0-0.1,0.1-0.1,0.1l-0.4,0.4c0,0-0.1,0.1-0.1,0.1l-8.8,9.9l-66.6-7.6
			c6.6-21.4,8.3-32.1,22-48.6c14.2-16.1,18.5-22.3,28.2-27.3c46.3-23.4,45.3-23.3,48.9-23.3c5.4,0,8.6,5.2,8.6,5.3c0,0,0,0,0,0.1
			c0,0,0,0.1,0.1,0.1c0.9,1.5,2.9,6,1.8,9.7c-0.2,0.8-0.9,3.3-5.4,5.5L381,313.6c-3.7,1.9-5.2,6.4-3.3,10.1c1.3,2.6,4,4.1,6.7,4.1
			c1.1,0,2.3-0.3,3.4-0.8l36.3-18.3c8.6-4.3,11.9-10.5,13.1-14.9c1.9-6.9,0.2-13.5-1.5-17.5l36.8-72.2c1-1.9,4.5-15.4,16.4-12.1
			C498.8,195.2,497.2,205.8,496.4,209.4z"/>
	</g>
</g>
<g>
	<g>
		<path class="st0" d="M240.6,474.1c0-0.2-7.1-61.8-7.1-61.9l-3.3-28.6c-0.8-7-6.7-12.2-13.7-12.2c-0.5,0-1,0-1.6,0.1l-4.2,0.5
			c-7.4-24.2-9.5-37.2-25.7-56.5c0,0-0.1-0.1-0.1-0.1l-15.7-17.9c0,0-0.1-0.1-0.1-0.1c-0.3-0.3-7.3-7.9-17-12.8
			c-47.1-23.8-47.6-24.9-55.6-24.9c-5,0-9.4,1.6-12.8,3.8l-30.6-65.7c-5-13.6-14.6-21.3-26.2-21.3c-18.3,0-31,16.2-25.7,37
			c0,0.1,0.1,0.3,0.1,0.4l34.1,107.6c5.1,19.7,20,30,26.2,33.5c0.1,0.1,0.2,0.1,0.3,0.2c43.9,22.2,41.3,19.9,49.9,29.5
			c-4.4,2.7-7,7.8-6.4,13.2c6,52.8,8.8,77.1,8.9,78.4c1.6,14,13.5,19.3,21,19.3H220C234.2,495.6,241.6,485.7,240.6,474.1z
			 M68.9,341.8c-4.6-2.6-15.4-10.2-19-24.3c0-0.2-0.1-0.3-0.1-0.4L15.7,209.5c-0.9-3.5-2.6-14.3,7.4-17.6c8.1-2.2,13,3.1,15.9,11
			c0.3,0.8-2.2-4.6,34,73.1c-5.5,13.1-1.8,25.8,11.6,32.6c39.3,19.8,37.2,19.1,39.7,19.1c7.8,0,10.4-10.6,3.4-14.2l-36.3-18.3
			c-4.5-2.3-5.2-4.7-5.4-5.5c-1.8-6.4,3.7-15.2,10.6-15.2c1.8,0,3.7,0.5,5.8,1.6l43.1,21.7c6.9,3.5,12.1,8.9,12.7,9.5
			c28.7,32.7,26.1,29.1,37.6,66.3l-66.6,7.6C111.7,361.9,118.7,367,68.9,341.8z M120.5,397.4c9.2-1,86.6-9.9,95-10.8l2.3,19.9
			c-10.1,1.1-84.9,9.7-95,10.8L120.5,397.4z M220,480.6h-84.4c-2.2-0.2-5.8-1.2-6.3-6l-4.8-42.4c10.1-1.1,84.9-9.7,95-10.8l6.2,54
			C225.7,479.3,224.5,480.6,220,480.6z"/>
	</g>
</g>
<g>
	<g>
		<path class="st0" d="M464.1,142.5h-48.4c-4.1,0-7.5,3.4-7.5,7.5s3.4,7.5,7.5,7.5h48.4c4.1,0,7.5-3.4,7.5-7.5
			C471.6,145.8,468.3,142.5,464.1,142.5z"/>
	</g>
</g>
<g>
	<g>
		<path class="st0" d="M455.5,70.8c-1.9-3.7-6.5-5.1-10.1-3.1l-42.8,22.6c-3.7,1.9-5.1,6.5-3.1,10.1c1.9,3.7,6.5,5.1,10.1,3.1
			l42.8-22.6C456,78.9,457.4,74.4,455.5,70.8z"/>
	</g>
</g>
<g>
	<g>
		<path class="st0" d="M94.7,142.5H46.2c-4.1,0-7.5,3.4-7.5,7.5s3.4,7.5,7.5,7.5h48.4c4.1,0,7.5-3.4,7.5-7.5
			C102.2,145.8,98.8,142.5,94.7,142.5z"/>
	</g>
</g>
<g>
	<g>
		<path class="st0" d="M107.8,90.2L65,67.6c-3.7-1.9-8.2-0.5-10.1,3.1c-1.9,3.7-0.5,8.2,3.1,10.1c46.5,24.5,43.7,23.5,46.3,23.5
			C112.1,104.4,114.7,93.9,107.8,90.2z"/>
	</g>
</g>
<g>
	<g>
		<path class="st0" d="M382,160c-4.1-0.6-7.9,2.3-8.5,6.4c-1.1,8-3,15.7-5.6,23.1c-11-2.9-22.2-5.3-33.6-7.2
			c1.5-10.4,2.3-21.3,2.3-32.3c0-11-0.8-21.9-2.3-32.3c11.4-2,22.6-4.4,33.6-7.2c2.6,7.4,4.5,15.1,5.6,23.1c0.6,4.1,4.4,7,8.5,6.4
			c4.1-0.6,7-4.4,6.4-8.5c-1.6-11.3-4.6-22.3-8.9-32.7c0-0.1-0.1-0.2-0.1-0.2c-0.1-0.2-0.2-0.4-0.3-0.7c-0.5-1.2-1-2.3-1.5-3.5
			c-0.2-0.5-0.5-1-0.7-1.5c-0.4-0.8-0.7-1.5-1.1-2.3c-0.5-1-1-2.1-1.6-3.1c-0.2-0.4-0.4-0.8-0.7-1.3c-23.8-44-69.2-70-117.5-70
			c0,0,0,0,0,0c-95.8,0-159.9,97.7-123.4,185.1c22.8,54.8,78.6,87.7,137.4,81.5c61.7-6.4,110.1-54.5,118.4-114.4
			C389,164.4,386.1,160.6,382,160z M208.9,41.1c-14.5,17.2-23.6,40-28.5,61.9c-10.3-1.8-20.4-3.9-30.4-6.4
			C162.6,71.8,183.5,52.1,208.9,41.1z M137.3,150c0-13.9,2.4-27.2,6.8-39.5c11,2.9,22.2,5.3,33.6,7.2c-1.5,10.4-2.3,21.3-2.3,32.3
			s0.8,21.9,2.3,32.3c-11.4,2-22.6,4.4-33.6,7.2C139.7,177.2,137.3,163.8,137.3,150z M150.1,203.5c9.9-2.5,20-4.7,30.4-6.4
			c4.9,21.9,14,44.6,28.5,61.9C183.5,247.8,162.6,228.1,150.1,203.5z M248.5,267.9c-29.1-6.2-46.6-44.2-53.2-73.1
			c17.3-2.3,35.1-3.7,53.2-4V267.9z M248.5,175.8c-19.1,0.3-37.8,1.7-56,4.2c-1.4-9.7-2.1-19.7-2.1-30c0-10.3,0.7-20.3,2.1-30
			c18.2,2.5,36.9,3.9,56,4.2V175.8z M248.5,109.2c-18.1-0.3-35.9-1.6-53.2-4c6.7-29.1,24.5-67.1,53.2-73.1V109.2z M361.9,96.5
			c-9.9,2.5-20,4.7-30.3,6.4c-3.8-17-9.6-32.6-17.4-45.9c-3.4-5.9-7.1-11.2-11-15.8C328.5,52.2,349.4,71.8,361.9,96.5z M263.5,32.1
			c14,3,27.2,14.2,37.7,32.4c6.8,11.8,12,25.6,15.5,40.7c-17.3,2.3-35.1,3.7-53.2,4V32.1z M263.5,124.2c19.1-0.3,37.8-1.7,56-4.2
			c1.4,9.7,2.1,19.7,2.1,30s-0.7,20.3-2.1,30c-18.2-2.5-36.9-3.9-56-4.2L263.5,124.2L263.5,124.2z M263.5,267.9v-77.1
			c18.1,0.3,35.9,1.6,53.2,4C310.1,223.9,292.5,261.7,263.5,267.9z M303.2,258.8c14.4-17.2,23.5-39.9,28.4-61.8
			c10.3,1.8,20.4,3.9,30.3,6.4C349.4,228.1,328.5,247.7,303.2,258.8z"/>
	</g>
</g>
</svg>
